{
    "error":"", 
    "resources":{
        "brand":"example brand", 
        "image":"http://test-image.com", 
        "name":"product name", 
        "otherImages":["http://test-1.com", "http://test-2.com"], 
        "price":100, 
        "size":"23", 
        "sku":"SKU 234"
    }
}