{
    "sku":"SKU 234",
    "name":"product name", 
    "brand":"example brand", 
    "size":"23", 
    "price":100,
    "image":"fake", 
    "otherImages":["http://test-1.com", "http://test-1.com"]
}
